Debug of Results: number of wires is 2 index is 46 fitness is 1.000000 
Target is:
[1.000000 0.000000 0.000000 0.000000 
0.000000 0.000000 0.000000 1.000000 
0.000000 0.000000 1.000000 0.000000 
0.000000 1.000000 0.000000 0.000000 ]

[1.000000 + 0.000000 *i 0.000000 + 0.000000 *i 0.000000 + 0.000000 *i 0.000000 + 0.000000 *i 
0.000000 + 0.000000 *i 0.000000 + 0.000000 *i 0.000000 + 0.000000 *i 1.000000 + 0.000000 *i 
0.000000 + 0.000000 *i 0.000000 + 0.000000 *i 1.000000 + 0.000000 *i 0.000000 + 0.000000 *i 
0.000000 + 0.000000 *i 1.000000 + 0.000000 *i 0.000000 + 0.000000 *i 0.000000 + 0.000000 *i ]

[1.000000 0.000000 0.000000 0.000000 
0.000000 0.000000 0.000000 1.000000 
0.000000 0.000000 1.000000 0.000000 
0.000000 1.000000 0.000000 0.000000 ]

[0.707107 + 0.707107 *i 0.000000 + 0.000000 *i 0.000000 + 0.000000 *i 0.000000 + 0.000000 *i 
0.000000 + 0.000000 *i -0.000000 + -0.000000 *i 0.000000 + 0.000000 *i -0.707107 + 0.707107 *i 
-0.000000 + 0.000000 *i 0.000000 + 0.000000 *i 0.707107 + -0.707107 *i 0.000000 + 0.000000 *i 
0.000000 + 0.000000 *i 0.707107 + 0.707107 *i 0.000000 + 0.000000 *i -0.000000 + 0.000000 *i ]

The search was completed by 2017_08_23:15:56:17
Quantum encoded:
Qubit 0 : [1.570796 + i*0.000000]  Qutrit 0 [-0.430892 + i * -0.159330,0.850989 + i * 0.078183, 0.026905 + i * -0.240680] 
Interaction between 1 and 1 with parameter 4.712389+i*0.000000
Qubit 2 : [4.712389 + i*0.000000]  Qutrit 2 [0.392732 + i * -0.662142,-0.426051 + i * 0.426976, 0.157581 + i * -0.136635] 

Export format (first index,second index, direction,parameter,real):
1 1 1 1.570796 0.000000 
1 2 2 4.712389 0.000000 
1 1 0 4.712389 0.000000 
